<?xml version="1.0" encoding="UTF-8" standalone="no"?>
<svg
   xmlns:dc="http://purl.org/dc/elements/1.1/"
   xmlns:cc="http://creativecommons.org/ns#"
   xmlns:rdf="http://www.w3.org/1999/02/22-rdf-syntax-ns#"
   xmlns:svg="http://www.w3.org/2000/svg"
   xmlns="http://www.w3.org/2000/svg"
   xmlns:sodipodi="http://sodipodi.sourceforge.net/DTD/sodipodi-0.dtd"
   xmlns:inkscape="http://www.inkscape.org/namespaces/inkscape"
   width="48.947918mm"
   height="19.843769mm"
   viewBox="0 0 48.947918 19.843769"
   version="1.1"
   id="svg8"
   inkscape:version="1.0.2 (e86c870879, 2021-01-15)"
   sodipodi:docname="kill.svg">
  <defs
     id="defs2" />
  <sodipodi:namedview
     id="base"
     pagecolor="#ffffff"
     bordercolor="#666666"
     borderopacity="1.0"
     inkscape:pageopacity="0.0"
     inkscape:pageshadow="2"
     inkscape:zoom="5.6"
     inkscape:cx="101.33013"
     inkscape:cy="54.786261"
     inkscape:document-units="mm"
     inkscape:current-layer="g1616"
     inkscape:document-rotation="0"
     showgrid="true"
     inkscape:window-width="1920"
     inkscape:window-height="1016"
     inkscape:window-x="0"
     inkscape:window-y="0"
     inkscape:window-maximized="1">
    <inkscape:grid
       type="xygrid"
       id="grid833"
       originx="-80.697913"
       originy="-126.99998" />
  </sodipodi:namedview>
  <metadata
     id="metadata5">
    <rdf:RDF>
      <cc:Work
         rdf:about="">
        <dc:format>image/svg+xml</dc:format>
        <dc:type
           rdf:resource="http://purl.org/dc/dcmitype/StillImage" />
        <dc:title />
      </cc:Work>
    </rdf:RDF>
  </metadata>
  <g
     inkscape:label="Layer 1"
     inkscape:groupmode="layer"
     id="layer1"
     transform="translate(-80.697914,-126.99998)">
    <rect
       style="opacity:0.992461;fill:#ff0000;fill-opacity:1;stroke:none;stroke-width:10.1;stroke-linejoin:round;paint-order:fill markers stroke"
       id="rect835"
       width="48.947918"
       height="19.843769"
       x="80.697914"
       y="126.99998" />
    <text
       xml:space="preserve"
       style="font-style:normal;font-weight:normal;font-size:3.52778px;line-height:1.25;font-family:sans-serif;letter-spacing:0px;word-spacing:0px;fill:#ffffff;fill-opacity:1;stroke:none;stroke-width:0.264583;"
       x="82.062859"
       y="130.93456"
       id="text839"><tspan
         sodipodi:role="line"
         id="tspan837"
         x="82.062859"
         y="130.93456"
         style="font-size:3.52778px;stroke-width:0.264583;fill:#ffffff;">Trains Kill </tspan><tspan
         sodipodi:role="line"
         x="82.062859"
         y="135.34428"
         style="font-size:3.52778px;stroke-width:0.264583;fill:#ffffff;"
         id="tspan841">at 6 m/s</tspan></text>
    <text
       xml:space="preserve"
       style="font-style:normal;font-weight:normal;font-size:3.52778px;line-height:1.25;font-family:sans-serif;letter-spacing:0px;word-spacing:0px;fill:#ffffff;fill-opacity:1;stroke:none;stroke-width:0.264583;"
       x="81.797195"
       y="140.15662"
       id="text867"><tspan
         sodipodi:role="line"
         id="tspan865"
         x="81.797195"
         y="140.15662"
         style="font-size:3.52778px;stroke-width:0.264583;fill:#ffffff;">Do not walk </tspan><tspan
         sodipodi:role="line"
         x="81.797195"
         y="144.56635"
         style="font-size:3.52778px;stroke-width:0.264583;fill:#ffffff;"
         id="tspan869">on the tracks</tspan></text>
    <g
       stroke="#000000"
       stroke-opacity="0.991"
       id="g1616"
       transform="matrix(0.05131481,0,0,0.04883339,107.20061,127.92402)"
       style="stroke-width:5.29378;stroke-miterlimit:4;stroke-dasharray:none;stroke:#ffffff">
      <g
         fill-rule="evenodd"
         stroke-width="5.44486"
         id="g1558"
         style="stroke-width:5.29378;stroke-miterlimit:4;stroke-dasharray:none;stroke:#ffffff;fill:#ffffff">
        <path
           d="m 197.85,199.94 c -6.3218,4.8072 -7.7281,6.4215 -11.222,11.741 -1.2642,2.0532 -3.6251,6.8512 -4.2706,10.07 -0.64484,3.2183 -1.128,7.8879 -1.126,10.361 0.008,8.3801 2.6752,13.637 5.5883,13.454 2.6028,-0.29863 5.9149,-3.0129 10.934,-9.1775"
           id="path1550"
           style="stroke-width:5.29378;stroke-miterlimit:4;stroke-dasharray:none;stroke:#ffffff;fill:#ffffff" />
        <path
           d="m 202.4,200.08 c 6.3218,4.8072 7.7282,6.4215 11.222,11.741 1.2642,2.0532 3.6251,6.8512 4.2706,10.07 0.64484,3.2183 1.128,7.8879 1.126,10.361 -0.008,8.3801 -2.6752,13.637 -5.5883,13.454 -2.6028,-0.29863 -5.9149,-3.0129 -10.934,-9.1775"
           stroke-linejoin="bevel"
           id="path1552"
           style="stroke-width:5.29378;stroke-miterlimit:4;stroke-dasharray:none;stroke:#ffffff;fill:#ffffff" />
        <path
           d="m 144.11,163.33 c 8.7759,-1.5381 17.28,-2.533 26.056,-3.528 11.49,-2.8955 17.281,10.223 14.114,20.085 -3.9804,8.7759 -9.5896,16.466 -16.013,23.885 -4.9761,5.6092 -10.904,6.5167 -16.557,4.6135 -4.5627,-1.2649 -8.7766,-4.0704 -13.3,-10.584 -1.9899,-5.6098 -3.7086,-8.5053 -6.2422,-15.471 -1.9899,-6.4235 1.1052,-16.039 11.943,-18.999 z"
           id="path1554"
           style="stroke-width:5.29378;stroke-miterlimit:4;stroke-dasharray:none;stroke:#ffffff;fill:#ffffff" />
        <path
           d="m 256.31,163.33 c -8.7759,-1.5381 -17.28,-2.533 -26.056,-3.528 -11.49,-2.8955 -17.281,10.223 -14.114,20.085 3.9804,8.7759 9.5896,16.466 16.013,23.885 4.9761,5.6092 10.904,6.5167 16.557,4.6135 4.5627,-1.2649 8.7766,-4.0704 13.3,-10.584 1.9899,-5.6098 3.7086,-8.5053 6.2422,-15.471 1.9899,-6.4235 -1.1051,-16.039 -11.943,-18.999 z"
           id="path1556"
           style="stroke-width:5.29378;stroke-miterlimit:4;stroke-dasharray:none;stroke:#ffffff;fill:#ffffff" />
      </g>
      <g
         fill="none"
         id="g1614"
         style="stroke-width:5.29378;stroke-miterlimit:4;stroke-dasharray:none;stroke:#ffffff">
        <g
           fill-rule="evenodd"
           id="g1602"
           style="stroke-width:5.29378;stroke-miterlimit:4;stroke-dasharray:none;stroke:#ffffff">
          <path
             d="m 143.95,238.29 c 3.7099,8.7003 4.8574,12.007 7.5326,20.68 2.2794,8.0124 3.1172,12.906 4.5255,24.292"
             stroke-width="27.2243"
             id="path1560"
             style="stroke-width:5.29378;stroke-miterlimit:4;stroke-dasharray:none;stroke:#ffffff" />
          <path
             d="m 256,237.81 c -3.7099,8.7003 -4.8574,12.007 -7.5326,20.68 -2.2794,8.0124 -3.1172,12.906 -4.5255,24.292"
             stroke-width="27.2243"
             id="path1562"
             style="stroke-width:5.29378;stroke-miterlimit:4;stroke-dasharray:none;stroke:#ffffff" />
          <path
             d="m 159.79,258.64 c 9.5961,5.8856 26.185,6.7932 41.047,6.5258 16.557,-0.0841 30.731,-1.2799 40.039,-6.9092"
             stroke-width="21.7795"
             id="path1564"
             style="stroke-width:5.29378;stroke-miterlimit:4;stroke-dasharray:none;stroke:#ffffff" />
          <path
             d="m 163.14,273.99 c 10.587,6.653 23.038,8.9376 37.376,8.3964 14.893,-0.36252 26.309,-1.6157 36.513,-8.5881"
             stroke-width="21.7795"
             id="path1566"
             style="stroke-width:5.29378;stroke-miterlimit:4;stroke-dasharray:none;stroke:#ffffff" />
          <path
             d="m 155.47,282.05 c 11.323,13.658 27.128,16.029 45.101,16.505 19.246,0.70218 38.576,-6.9406 43.566,-16.505"
             stroke-width="27.2243"
             id="path1568"
             style="stroke-width:5.29378;stroke-miterlimit:4;stroke-dasharray:none;stroke:#ffffff" />
          <g
             stroke-width="21.7795"
             id="g1588"
             style="stroke-width:5.29378;stroke-miterlimit:4;stroke-dasharray:none;stroke:#ffffff">
            <path
               d="m 163,261.59 -0.2712,26.87"
               id="path1570"
               style="stroke-width:5.29378;stroke-miterlimit:4;stroke-dasharray:none;stroke:#ffffff" />
            <path
               d="m 171.82,264.44 -0.1356,28.77"
               id="path1572"
               style="stroke-width:5.29378;stroke-miterlimit:4;stroke-dasharray:none;stroke:#ffffff" />
            <path
               d="m 181.59,265.66 -0.2712,30.128"
               id="path1574"
               style="stroke-width:5.29378;stroke-miterlimit:4;stroke-dasharray:none;stroke:#ffffff" />
            <path
               d="m 190.41,266.34 -0.1363,30.534"
               id="path1576"
               style="stroke-width:5.29378;stroke-miterlimit:4;stroke-dasharray:none;stroke:#ffffff" />
            <path
               d="m 200.32,266.61 v 30.534"
               id="path1578"
               style="stroke-width:5.29378;stroke-miterlimit:4;stroke-dasharray:none;stroke:#ffffff" />
            <path
               d="m 209.82,266.47 0.1356,30.534"
               id="path1580"
               style="stroke-width:5.29378;stroke-miterlimit:4;stroke-dasharray:none;stroke:#ffffff" />
            <path
               d="m 218.37,265.66 0.2712,29.992"
               id="path1582"
               style="stroke-width:5.29378;stroke-miterlimit:4;stroke-dasharray:none;stroke:#ffffff" />
            <path
               d="m 228.27,264.03 0.1356,28.77"
               id="path1584"
               style="stroke-width:5.29378;stroke-miterlimit:4;stroke-dasharray:none;stroke:#ffffff" />
            <path
               d="m 237.23,260.5 0.2719,27.141"
               id="path1586"
               style="stroke-width:5.29378;stroke-miterlimit:4;stroke-dasharray:none;stroke:#ffffff" />
          </g>
          <g
             stroke-width="54.4486"
             id="g1600"
             style="stroke-width:5.29378;stroke-miterlimit:4;stroke-dasharray:none;stroke:#ffffff">
            <path
               d="m 117.39,184.2 c -12.477,-12.129 -21.196,-33.179 -22.407,-55.91 -1.3138,-25.05 11.878,-49.924 31.646,-64.104 22.148,-15.589 59.179,-19.9 82.205,-18.737 15.596,0.01082 50.338,8.098 62.602,17.231 21.512,15.642 33.048,37.842 33.848,63.146 1.1821,25.417 -9.5231,44.776 -22.632,56.858"
               stroke-linecap="round"
               stroke-linejoin="round"
               id="path1590"
               style="stroke-width:5.29378;stroke-miterlimit:4;stroke-dasharray:none;stroke:#ffffff" />
            <path
               d="m 118.15,112.94 c -5.0543,4.4218 -4.4166,11.069 -3.5064,20.989 0.71851,7.5371 5.5276,14.956 5.7806,21.842 1.7682,14.53 -2.5271,29.06 -4.549,40.936 -1.3901,13.645 2.5278,25.395 7.5814,29.944 5.0537,4.4858 11.577,6.3433 18.431,8.4343 6.2272,1.6287 9.4566,4.461 14.167,7.9726 5.6111,5.9573 6.9497,10.884 6.8232,16.949"
               stroke-linejoin="round"
               id="path1592"
               style="stroke-width:5.29378;stroke-miterlimit:4;stroke-dasharray:none;stroke:#ffffff" />
            <path
               d="m 282.72,112.56 c 5.0543,4.4218 4.4167,11.069 3.5065,20.989 -0.71851,7.5371 -5.5276,14.956 -5.7806,21.842 -1.7682,14.53 2.5272,29.06 4.549,40.936 1.3901,13.645 -2.5278,25.395 -7.5814,29.944 -5.0536,4.4858 -14.303,6.8949 -18.431,8.4343 -4.8098,1.6828 -9.7278,4.7322 -14.167,8.2439 -5.3399,5.143 -6.9496,10.613 -6.8232,16.678"
               stroke-linejoin="round"
               id="path1594"
               style="stroke-width:5.29378;stroke-miterlimit:4;stroke-dasharray:none;stroke:#ffffff" />
            <path
               d="m 132.6,233.36 c 4.5236,10.947 9.3184,21.623 9.7709,32.841 -2.0805,9.0471 -1.4474,19.723 0.81435,28.228 2.8955,11.671 14.204,25.513 25.514,30.127 11.58,4.2067 18.818,5.2929 31.755,5.2929"
               id="path1596"
               style="stroke-width:5.29378;stroke-miterlimit:4;stroke-dasharray:none;stroke:#ffffff" />
            <path
               d="m 267.63,233.36 c -4.5236,10.947 -9.3184,21.623 -9.7709,32.841 2.0805,9.0471 1.4474,19.723 -0.81433,28.228 -2.8955,11.671 -14.34,25.106 -25.65,29.72 -11.309,4.6142 -18.546,5.6998 -31.484,5.6998"
               id="path1598"
               style="stroke-width:5.29378;stroke-miterlimit:4;stroke-dasharray:none;stroke:#ffffff" />
          </g>
        </g>
        <g
           stroke-linejoin="round"
           stroke-width="54.4486"
           id="g1612"
           style="stroke-width:5.29378;stroke-miterlimit:4;stroke-dasharray:none;stroke:#ffffff">
          <path
             d="m 260.71,284.65 44.513,20.628 c 5.4279,2.2618 9.7702,1.5381 13.842,0.27124 6.4235,-1.8999 11.49,-0.81369 16.828,1.3574 6.4235,3.2567 6.6054,7.8709 2.4437,12.485 -3.7999,4.433 -7.6004,6.6947 -12.214,11.128 -0.9956,7.1472 -0.36252,13.752 -3.5293,20.357 -3.9805,5.7898 -8.2328,4.7948 -14.928,-1.3574 -6.7854,-5.2479 -4.343,-11.038 -14.114,-19.542 l -41.256,-21.442"
             id="path1604"
             style="stroke-width:5.29378;stroke-miterlimit:4;stroke-dasharray:none;stroke:#ffffff" />
          <path
             d="m 139.12,284.38 c -14.838,7.8709 -28.318,15.199 -45.326,21.713 -13.843,3.438 -13.3,-5.066 -30.128,0.54312 -4.7951,3.7999 -4.7046,9.2278 -0.81421,13.299 4.5237,4.4336 7.6903,7.2385 11.671,11.129 1.2668,5.6092 1.4474,10.404 2.1712,17.099 2.7143,8.2335 8.6853,7.781 13.842,3.8005 2.2618,-2.8049 5.0667,-5.3379 6.7854,-8.414 2.3524,-4.0711 4.9761,-8.6853 8.1428,-12.485 l 40.984,-21.714"
             id="path1606"
             style="stroke-width:5.29378;stroke-miterlimit:4;stroke-dasharray:none;stroke:#ffffff" />
          <path
             d="m 267.22,240.14 c 16.828,-8.3234 30.67,-15.019 45.869,-22.528 9.3184,-7.7803 6.9666,-15.29 14.386,-20.899 7.3278,-6.9666 12.213,-5.2473 14.928,-1.3568 2.6237,6.6041 3.8905,13.209 3.5286,20.085 6.966,6.4235 10.676,10.133 14.657,16.014 0.54245,7.4184 -5.9716,10.494 -13.843,10.584 -10.314,1.8999 -11.943,-4.6142 -23.614,0 l -61.612,29.041"
             stroke-linecap="square"
             id="path1608"
             style="stroke-width:5.29378;stroke-miterlimit:4;stroke-dasharray:none;stroke:#ffffff" />
          <path
             d="m 134.17,240.79 c -17.017,-8.3169 -31.155,-14.523 -47.981,-23.799 -9.1482,-7.2933 -6.2051,-15.546 -17.273,-22.263 -4.862,-2.4306 -8.3805,-3.5182 -12.283,3.0709 -2.495,5.8863 -2.3031,12.155 -2.6869,18.233 -4.3502,4.6696 -9.2762,7.421 -12.859,13.243 -5.1819,8.3169 2.6868,11.068 6.9091,12.091 12.027,3.0064 16.377,-2.4313 27.444,-0.19235 21.56,10.044 43.31,20.472 64.102,30.707"
             id="path1610"
             style="stroke-width:5.29378;stroke-miterlimit:4;stroke-dasharray:none;stroke:#ffffff" />
        </g>
      </g>
    </g>
  </g>
</svg>
