<?xml version="1.0" encoding="UTF-8" standalone="no"?>
<svg
   xmlns:dc="http://purl.org/dc/elements/1.1/"
   xmlns:cc="http://creativecommons.org/ns#"
   xmlns:rdf="http://www.w3.org/1999/02/22-rdf-syntax-ns#"
   xmlns:svg="http://www.w3.org/2000/svg"
   xmlns="http://www.w3.org/2000/svg"
   xmlns:sodipodi="http://sodipodi.sourceforge.net/DTD/sodipodi-0.dtd"
   xmlns:inkscape="http://www.inkscape.org/namespaces/inkscape"
   width="21.166666mm"
   height="13.229166mm"
   viewBox="0 0 21.166666 13.229166"
   version="1.1"
   id="svg8"
   inkscape:version="1.0.2 (e86c870879, 2021-01-15)"
   sodipodi:docname="trespassing mg.svg"
   inkscape:export-filename="/home/independent/dnow/essentials/images/Filing/inkscape/signs/trespassing mg.png"
   inkscape:export-xdpi="307.20001"
   inkscape:export-ydpi="307.20001">
  <defs
     id="defs2" />
  <sodipodi:namedview
     id="base"
     pagecolor="#ffffff"
     bordercolor="#666666"
     borderopacity="1.0"
     inkscape:pageopacity="0.0"
     inkscape:pageshadow="2"
     inkscape:zoom="7.9195959"
     inkscape:cx="-21.2555"
     inkscape:cy="21.704794"
     inkscape:document-units="mm"
     inkscape:current-layer="layer1"
     inkscape:document-rotation="0"
     showgrid="true"
     inkscape:window-width="1264"
     inkscape:window-height="761"
     inkscape:window-x="26"
     inkscape:window-y="23"
     inkscape:window-maximized="0">
    <inkscape:grid
       type="xygrid"
       id="grid833"
       originx="-95.249993"
       originy="-140.22917" />
  </sodipodi:namedview>
  <metadata
     id="metadata5">
    <rdf:RDF>
      <cc:Work
         rdf:about="">
        <dc:format>image/svg+xml</dc:format>
        <dc:type
           rdf:resource="http://purl.org/dc/dcmitype/StillImage" />
        <dc:title />
      </cc:Work>
    </rdf:RDF>
  </metadata>
  <g
     inkscape:label="Layer 1"
     inkscape:groupmode="layer"
     id="layer1"
     transform="translate(-95.25,-140.22917)">
    <rect
       style="fill:#ff0000;stroke-width:0.316237"
       id="rect835"
       width="21.166666"
       height="13.229166"
       x="95.25"
       y="140.22917" />
    <text
       xml:space="preserve"
       style="font-style:normal;font-weight:normal;font-size:2.11667px;line-height:1.25;font-family:sans-serif;fill:#f9f9f9;fill-opacity:1;stroke:none;stroke-width:0.264583"
       x="97.895836"
       y="143.66876"
       id="text839"><tspan
         sodipodi:role="line"
         id="tspan837"
         x="97.895836"
         y="143.66876"
         style="font-size:2.11667px;fill:#f9f9f9;stroke-width:0.264583">Warning:</tspan><tspan
         sodipodi:role="line"
         x="97.895836"
         y="146.31461"
         style="font-size:2.11667px;fill:#f9f9f9;stroke-width:0.264583"
         id="tspan841">Do not trespass</tspan><tspan
         sodipodi:role="line"
         x="97.895836"
         y="148.96043"
         style="font-size:2.11667px;fill:#f9f9f9;stroke-width:0.264583"
         id="tspan843">on the Railway</tspan><tspan
         sodipodi:role="line"
         x="97.895836"
         y="151.60628"
         style="font-size:2.11667px;fill:#f9f9f9;stroke-width:0.264583"
         id="tspan845">Penalty 100 mg</tspan></text>
  </g>
</svg>
